Scrabble Helper for Mobile Apps.
Word Finder.
Home.
WORD FINDER.
UNSCRAMBLE.
Find Words.
Enter ScrabbleÂ® tiles here. Use up to two "?" as wildcards. Remember Tiles:
Find Words.
Enter ScrabbleÂ® tiles here. Use up to two "?" as wildcards. Remember Tiles:
673 words found for letters EELOTW with 1 wildcard(s)
Jump to   7 6 5 4 3 2   letter words.
7 Letter Words Word.
ScrabbleÂ® Points.
Words With FriendsÂ® Points.
toweled.
9 10.
6 Letter Words Word.
ScrabbleÂ® Points.
Words With FriendsÂ® Points.
bolete.
5 6.
etoile.
5 6.
oleate.
5 6.
omelet.
5 6.
telome.
5 6.
twelve.
8 9.
welted.
8 9.
welter.
8 9.
towhee.
8 8.
townee.
8 8.
howlet.
8 9.
lowest.
8 9.
owlets.
8 9.
towels.
8 9.
trowel.
8 9.
5 Letter Words Word.
ScrabbleÂ® Points.
Words With FriendsÂ® Points.
elope.
4 5.
leone.
4 5.
betel.
4 5.
elate.
4 5.
elect.
4 5.
elite.
4 5.
elute.
4 5.
fleet.
4 5.
gleet.
4 5.
leets.
4 5.
lethe.
4 5.
relet.
4 5.
sleet.
4 5.
steel.
4 5.
stele.
4 5.
teels.
4 5.
telae.
4 5.
teles.
4 5.
telex.
4 5.
jewel.
7 8.
newel.
7 8.
wedel.
7 8.
wheel.
7 8.
emote.
4 4.
topee.
4 4.
etwee.
7 7.
rewet.
7 7.
sweet.
7 7.
tewed.
7 7.
tweed.
7 7.
tween.
7 7.
tweet.
7 7.
weest.
7 7.
weets.
7 7.
owlet.
8 9.
towel.
8 9.
botel.
4 5.
extol.
4 5.
helot.
4 5.
hotel.
4 5.
ketol.
4 5.
lento.
4 5.
lotte.
4 5.
metol.
4 5.
motel.
4 5.
owlet.
4 5.
stole.
4 5.
telco.
4 5.
teloi.
4 5.
telos.
4 5.
thole.
4 5.
toile.
4 5.
toled.
4 5.
toles.
4 5.
towel.
4 5.
volte.
4 5.
zlote.
4 5.
below.
7 8.
bowel.
7 8.
dowel.
7 8.
elbow.
7 8.
lowed.
7 8.
lower.
7 8.
lowes.
7 8.
lowse.
7 8.
owlet.
7 8.
rowel.
7 8.
towel.
7 8.
vowel.
7 8.
whole.
7 8.
dwelt.
7 8.
owlet.
7 8.
towel.
7 8.
welts.
7 8.
wetly.
7 8.
owlet.
7 7.
towed.
7 7.
towel.
7 7.
tower.
7 7.
towie.
7 7.
wrote.
7 7.
owlet.
7 8.
towel.
7 8.
4 Letter Words Word.
ScrabbleÂ® Points.
Words With FriendsÂ® Points.
leet.
4 5.
teel.
4 5.
tele.
4 5.
weel.
7 8.
alee.
3 4.
dele.
3 4.
eels.
3 4.
eely.
3 4.
else.
3 4.
feel.
3 4.
flee.
3 4.
glee.
3 4.
heel.
3 4.
keel.
3 4.
leek.
3 4.
leer.
3 4.
lees.
3 4.
leet.
3 4.
leke.
3 4.
peel.
3 4.
pele.
3 4.
reel.
3 4.
seel.
3 4.
teel.
3 4.
tele.
3 4.
weel.
3 4.
ogee.
3 3.
twee.
7 7.
weet.
7 7.
beet.
3 3.
cete.
3 3.
deet.
3 3.
feet.
3 3.
fete.
3 3.
jete.
3 3.
keet.
3 3.
leet.
3 3.
meet.
3 3.
mete.
3 3.
rete.
3 3.
teed.
3 3.
teel.
3 3.
teem.
3 3.
teen.
3 3.
tees.
3 3.
tele.
3 3.
thee.
3 3.
tree.
3 3.
twee.
3 3.
tyee.
3 3.
weet.
3 3.
awee.
6 6.
ewer.
6 6.
ewes.
6 6.
twee.
6 6.
weed.
6 6.
week.
6 6.
weel.
6 6.
ween.
6 6.
weep.
6 6.
weer.
6 6.
wees.
6 6.
weet.
6 6.
were.
6 6.
whee.
6 6.
tole.
4 5.
lowe.
7 8.
aloe.
3 4.
bole.
3 4.
cole.
3 4.
dole.
3 4.
enol.
3 4.
floe.
3 4.
helo.
3 4.
hole.
3 4.
jole.
3 4.
koel.
3 4.
leno.
3 4.
levo.
3 4.
lobe.
3 4.
lode.
3 4.
loge.
3 4.
lone.
3 4.
lope.
3 4.
lore.
3 4.
lose.
3 4.
love.
3 4.
lowe.
3 4.
mole.
3 4.
noel.
3 4.
ogle.
3 4.
olea.
3 4.
oleo.
3 4.
oles.
3 4.
orle.
3 4.
pole.
3 4.
role.
3 4.
sloe.
3 4.
sole.
3 4.
tole.
3 4.
vole.
3 4.
welt.
7 8.
belt.
3 4.
blet.
3 4.
celt.
3 4.
delt.
3 4.
felt.
3 4.
gelt.
3 4.
kelt.
3 4.
late.
3 4.
leet.
3 4.
left.
3 4.
lent.
3 4.
lept.
3 4.
lest.
3 4.
lets.
3 4.
lite.
3 4.
lute.
3 4.
melt.
3 4.
pelt.
3 4.
tael.
3 4.
tale.
3 4.
teal.
3 4.
teel.
3 4.
tela.
3 4.
tele.
3 4.
tell.
3 4.
tels.
3 4.
tile.
3 4.
tole.
3 4.
tule.
3 4.
welt.
3 4.
blew.
6 7.
clew.
6 7.
flew.
6 7.
lewd.
6 7.
lowe.
6 7.
lwei.
6 7.
mewl.
6 7.
plew.
6 7.
slew.
6 7.
wale.
6 7.
weal.
6 7.
weel.
6 7.
weld.
6 7.
well.
6 7.
welt.
6 7.
wile.
6 7.
wyle.
6 7.
cote.
3 3.
dote.
3 3.
keto.
3 3.
mote.
3 3.
note.
3 3.
poet.
3 3.
rote.
3 3.
toea.
3 3.
toed.
3 3.
toes.
3 3.
toke.
3 3.
tole.
3 3.
tome.
3 3.
tone.
3 3.
tope.
3 3.
tore.
3 3.
tote.
3 3.
veto.
3 3.
vote.
3 3.
enow.
6 6.
howe.
6 6.
lowe.
6 6.
meow.
6 6.
owed.
6 6.
owes.
6 6.
owse.
6 6.
woes.
6 6.
woke.
6 6.
wore.
6 6.
wove.
6 6.
yowe.
6 6.
newt.
6 6.
stew.
6 6.
tews.
6 6.
thew.
6 6.
twae.
6 6.
twee.
6 6.
weet.
6 6.
weft.
6 6.
welt.
6 6.
went.
6 6.
wept.
6 6.
wert.
6 6.
west.
6 6.
wets.
6 6.
whet.
6 6.
wite.
6 6.
wyte.
6 6.
alto.
3 4.
blot.
3 4.
bolt.
3 4.
clot.
3 4.
colt.
3 4.
dolt.
3 4.
holt.
3 4.
jolt.
3 4.
loft.
3 4.
loot.
3 4.
lost.
3 4.
lota.
3 4.
loth.
3 4.
loti.
3 4.
lots.
3 4.
lout.
3 4.
molt.
3 4.
plot.
3 4.
rotl.
3 4.
slot.
3 4.
toil.
3 4.
tola.
3 4.
told.
3 4.
tole.
3 4.
toll.
3 4.
tolu.
3 4.
tool.
3 4.
volt.
3 4.
alow.
6 7.
awol.
6 7.
blow.
6 7.
bowl.
6 7.
cowl.
6 7.
flow.
6 7.
fowl.
6 7.
glow.
6 7.
howl.
6 7.
jowl.
6 7.
lowe.
6 7.
lown.
6 7.
lows.
6 7.
owls.
6 7.
plow.
6 7.
slow.
6 7.
wold.
6 7.
wolf.
6 7.
wool.
6 7.
yowl.
6 7.
welt.
6 7.
wilt.
6 7.
nowt.
6 6.
stow.
6 6.
swot.
6 6.
town.
6 6.
tows.
6 6.
towy.
6 6.
trow.
6 6.
twos.
6 6.
wont.
6 6.
wort.
6 6.
wost.
6 6.
wots.
6 6.
3 Letter Words Word.
ScrabbleÂ® Points.
Words With FriendsÂ® Points.
eel.
3 4.
lee.
3 4.
tee.
3 3.
ewe.
6 6.
wee.
6 6.
bee.
2 2.
cee.
2 2.
dee.
2 2.
eek.
2 2.
eel.
2 2.
eke.
2 2.
eme.
2 2.
ere.
2 2.
eve.
2 2.
ewe.
2 2.
eye.
2 2.
fee.
2 2.
gee.
2 2.
jee.
2 2.
lee.
2 2.
nee.
2 2.
pee.
2 2.
ree.
2 2.
see.
2 2.
tee.
2 2.
vee.
2 2.
wee.
2 2.
zee.
2 2.
ole.
3 4.
let.
3 4.
tel.
3 4.
ale.
2 3.
bel.
2 3.
cel.
2 3.
del.
2 3.
eel.
2 3.
eld.
2 3.
elf.
2 3.
elk.
2 3.
ell.
2 3.
elm.
2 3.
els.
2 3.
gel.
2 3.
lea.
2 3.
led.
2 3.
lee.
2 3.
leg.
2 3.
lei.
2 3.
lek.
2 3.
les.
2 3.
let.
2 3.
leu.
2 3.
lev.
2 3.
lex.
2 3.
ley.
2 3.
lez.
2 3.
lie.
2 3.
lye.
2 3.
mel.
2 3.
ole.
2 3.
sel.
2 3.
tel.
2 3.
toe.
3 3.
owe.
6 6.
woe.
6 6.
doe.
2 2.
ego.
2 2.
eon.
2 2.
foe.
2 2.
hoe.
2 2.
joe.
2 2.
obe.
2 2.
ode.
2 2.
oes.
2 2.
oke.
2 2.
ole.
2 2.
one.
2 2.
ope.
2 2.
ore.
2 2.
ose.
2 2.
owe.
2 2.
roe.
2 2.
toe.
2 2.
voe.
2 2.
woe.
2 2.
tew.
6 6.
wet.
6 6.
ate.
2 2.
bet.
2 2.
eat.
2 2.
eft.
2 2.
eta.
2 2.
eth.
2 2.
fet.
2 2.
get.
2 2.
het.
2 2.
jet.
2 2.
let.
2 2.
met.
2 2.
net.
2 2.
pet.
2 2.
ret.
2 2.
set.
2 2.
tae.
2 2.
tea.
2 2.
ted.
2 2.
tee.
2 2.
teg.
2 2.
tel.
2 2.
ten.
2 2.
tet.
2 2.
tew.
2 2.
the.
2 2.
tie.
2 2.
toe.
2 2.
tye.
2 2.
ute.
2 2.
vet.
2 2.
wet.
2 2.
yet.
2 2.
awe.
5 5.
dew.
5 5.
ewe.
5 5.
few.
5 5.
hew.
5 5.
jew.
5 5.
mew.
5 5.
new.
5 5.
owe.
5 5.
pew.
5 5.
sew.
5 5.
tew.
5 5.
wae.
5 5.
web.
5 5.
wed.
5 5.
wee.
5 5.
wen.
5 5.
wet.
5 5.
woe.
5 5.
wye.
5 5.
yew.
5 5.
lot.
3 4.
low.
6 7.
owl.
6 7.
col.
2 3.
dol.
2 3.
lob.
2 3.
log.
2 3.
loo.
2 3.
lop.
2 3.
lot.
2 3.
low.
2 3.
lox.
2 3.
mol.
2 3.
oil.
2 3.
old.
2 3.
ole.
2 3.
owl.
2 3.
pol.
2 3.
sol.
2 3.
alt.
2 3.
lat.
2 3.
let.
2 3.
lit.
2 3.
lot.
2 3.
tel.
2 3.
til.
2 3.
awl.
5 6.
law.
5 6.
low.
5 6.
owl.
5 6.
tow.
6 6.
two.
6 6.
wot.
6 6.
bot.
2 2.
cot.
2 2.
dot.
2 2.
got.
2 2.
hot.
2 2.
jot.
2 2.
lot.
2 2.
mot.
2 2.
not.
2 2.
oat.
2 2.
oft.
2 2.
oot.
2 2.
opt.
2 2.
ort.
2 2.
out.
2 2.
pot.
2 2.
rot.
2 2.
sot.
2 2.
tao.
2 2.
tho.
2 2.
tod.
2 2.
toe.
2 2.
tog.
2 2.
tom.
2 2.
ton.
2 2.
too.
2 2.
top.
2 2.
tor.
2 2.
tot.
2 2.
tow.
2 2.
toy.
2 2.
two.
2 2.
wot.
2 2.
bow.
5 5.
cow.
5 5.
dow.
5 5.
how.
5 5.
jow.
5 5.
low.
5 5.
mow.
5 5.
now.
5 5.
owe.
5 5.
owl.
5 5.
own.
5 5.
pow.
5 5.
row.
5 5.
sow.
5 5.
tow.
5 5.
two.
5 5.
vow.
5 5.
who.
5 5.
woe.
5 5.
wog.
5 5.
wok.
5 5.
won.
5 5.
woo.
5 5.
wop.
5 5.
wos.
5 5.
wot.
5 5.
wow.
5 5.
yow.
5 5.
taw.
5 5.
tew.
5 5.
tow.
5 5.
twa.
5 5.
two.
5 5.
wat.
5 5.
wet.
5 5.
wit.
5 5.
wot.
5 5.
2 Letter Words Word.
ScrabbleÂ® Points.
Words With FriendsÂ® Points.
ae.
1 1.
al.
1 2.
at.
1 1.
aw.
4 4.
be.
1 1.
bo.
1 1.
de.
1 1.
do.
1 1.
ed.
1 1.
ef.
1 1.
eh.
1 1.
el.
2 3.
el.
1 2.
el.
1 1.
em.
1 1.
en.
1 1.
er.
1 1.
es.
1 1.
et.
2 2.
et.
1 1.
et.
1 1.
ex.
1 1.
fe.
1 1.
go.
1 1.
he.
1 1.
ho.
1 1.
it.
1 1.
jo.
1 1.
la.
1 2.
li.
1 2.
lo.
2 3.
lo.
1 1.
lo.
1 2.
me.
1 1.
mo.
1 1.
ne.
1 1.
no.
1 1.
od.
1 1.
oe.
2 2.
oe.
1 1.
oe.
1 1.
of.
1 1.
oh.
1 1.
oi.
1 1.
om.
1 1.
on.
1 1.
op.
1 1.
or.
1 1.
os.
1 1.
ow.
5 5.
ow.
4 4.
ow.
1 1.
ox.
1 1.
oy.
1 1.
pe.
1 1.
re.
1 1.
so.
1 1.
ta.
1 1.
ti.
1 1.
to.
2 2.
to.
1 1.
to.
1 1.
ut.
1 1.
we.
5 5.
we.
4 4.
we.
1 1.
wo.
5 5.
wo.
4 4.
wo.
1 1.
ye.
1 1.
yo.
1 1.
Tweet.
4 Pics 1 Word Answers.
Get the help you need for the addictive game 4 Pics 1 Word.
Try Word Finder for 4 Pics.
List of Words.
Words Ending in...
Words that Start with...
Words with the Letter...
Words by Length.
Consonant Words.
Vowel Words.
Follow YourDictionary.
SCRABBLEÂ® and WORDS WITH FRIENDSÂ® are the property of their respective trademark owners. These trademark owners are not affiliated with, and do not endorse and/or sponsor, LoveToKnowÂ®, its products or its websites, including yourdictionary.com. Use of these trademarks on yourdictionary.com is for informational purposes only.
