Book cheap flights from Austin Bergstrom to Oklahoma City Will Rogers World.
(Round-trip)
Depart: Wed Mar 15 2017Return: Sat Mar 18 2017Trip spans 4 days.
$292.
Select.
American Airlines.
AUS.
2:15a.
→OKC.
5:55a.
3h 40m.
1 stop.
OKC.
4:09p.
→AUS.
7:13p.
3h 04m.
1 stop.
Show reviews.
Hide reviews.
7.0 Good (14,494 reviews)
American Airlines, traveler reviews.
Overall.
7.2.
Boarding.
7.3.
Comfort.
7.0.
Crew.
7.7.
Entertainment.
6.4.
Food.
6.4.
7.0.
Good.
14,494 reviews.
2.0 Poor.
(ABE → CLT)
Nothing... Entire experience horrible for my 17 year old.
Everything. Will never use American Airlines again.
more.
less.
10.0 Excellent.
(ABE → CLT)
First class.
more.
less.
Read all traveler reviews for American Airlines.
Depart: Fri May 12 2017Return: Sun May 14 2017Trip spans 3 days.
$292.
Select.
Major Airline.
AUS.
10:35p.
→OKC.
10:49a.
12h 14m.
1 stop.
OKC.
11:35a.
→AUS.
9:17p.
9h 42m.
1 stop.
Depart: Sat May 13 2017Return: Sun May 14 2017Trip spans 2 days.
$292.
Select.
United.
AUS.
4:20a.
→OKC.
8:57a.
4h 37m.
1 stop.
OKC.
3:00p.
→AUS.
7:57p.
4h 57m.
1 stop.
Show reviews.
Hide reviews.
7.0 Good (32,714 reviews)
United, traveler reviews.
Overall.
7.2.
Boarding.
7.3.
Comfort.
6.9.
Crew.
7.7.
Entertainment.
6.4.
Food.
6.4.
7.0.
Good.
32,714 reviews.
10.0 Excellent.
(ABE → ORD)
Courtesy and smiling faces.
I actually have no complaints. All went well on both legs of my flight.
more.
less.
5.6 Okay.
(ABQ → DEN)
Delayed flight.
more.
less.
Read all traveler reviews for United.
Depart: Thu Apr 27 2017Return: Sat Apr 29 2017Trip spans 3 days.
$292.
Select.
American Airlines.
AUS.
2:15a.
→OKC.
5:49a.
3h 34m.
1 stop.
OKC.
12:03p.
→AUS.
4:14p.
4h 11m.
1 stop.
Show reviews.
Hide reviews.
7.0 Good (14,494 reviews)
American Airlines, traveler reviews.
Overall.
7.2.
Boarding.
7.3.
Comfort.
7.0.
Crew.
7.7.
Entertainment.
6.4.
Food.
6.4.
7.0.
Good.
14,494 reviews.
8.0 Good.
(ABE → CLT)
Friendly crew.
Having to pay extra $$ for seating and not enough together.
more.
less.
7.3 Good.
(ABE → CLT)
Arrived twenty minutes late. AA refused to accept responsibility for this and compensate me, even though my transportation had departed without me as a result of their tardiness.
more.
less.
Read all traveler reviews for American Airlines.
Depart: Thu Mar 23 2017Return: Sun Mar 26 2017Trip spans 4 days.
$302.
Select.
Major Airline.
AUS.
10:35p.
→OKC.
9:26a.
10h 51m.
1 stop.
OKC.
10:10a.
→AUS.
9:11p.
11h 01m.
1 stop.
Depart: Fri Mar 24 2017Return: Sun Mar 26 2017Trip spans 3 days.
$302.
Select.
United.
AUS.
8:35a.
→OKC.
1:22p.
4h 47m.
1 stop.
OKC.
2:20a.
→AUS.
5:59a.
3h 39m.
1 stop.
Show reviews.
Hide reviews.
7.0 Good (32,714 reviews)
United, traveler reviews.
Overall.
7.2.
Boarding.
7.3.
Comfort.
6.9.
Crew.
7.7.
Entertainment.
6.4.
Food.
6.4.
7.0.
Good.
32,714 reviews.
6.0 Okay.
(ABQ → DEN)
Had to pay to pay extra to watch t.v. was $7.99 for a 2 hour flight. Could go to a theater for those prices. Everyone in my group complained about it.
more.
less.
2.0 Poor.
(ABQ → DEN)
So many maintenance delays, I wouldn't make any connections. Gate attendants were crabby and not very helpful.
more.
less.
Read all traveler reviews for United.
Depart: Mon Mar 13 2017Return: Tue Mar 14 2017Trip spans 2 days.
$302.
Select.
American Airlines.
AUS.
3:45p.
→OKC.
7:16p.
3h 31m.
1 stop.
OKC.
1:10a.
→AUS.
5:50a.
4h 40m.
1 stop.
Show reviews.
Hide reviews.
7.0 Good (14,494 reviews)
American Airlines, traveler reviews.
Overall.
7.2.
Boarding.
7.3.
Comfort.
7.0.
Crew.
7.7.
Entertainment.
6.4.
Food.
6.4.
7.0.
Good.
14,494 reviews.
2.6 Mediocre.
(ABE → PHL)
I arrived at my destination.
AA changed my flight plans which resulted in a 4.5 hour layover in Philly. The gates were filthy, there is not much selection for in-flight food and nothing for entertainment. I couldn't even find an outlet that worked at the gate.
more.
less.
7.0 Good.
(ABE → PHL)
The crew was excellent, timing was superb,
more.
less.
Read all traveler reviews for American Airlines.
Depart: Thu Mar 30 2017Return: Sun Apr 2 2017Trip spans 4 days.
$302.
Select.
Major Airline.
AUS.
10:35p.
→OKC.
9:26a.
10h 51m.
1 stop.
OKC.
10:10a.
→AUS.
9:11p.
11h 01m.
1 stop.
Depart: Fri Mar 31 2017Return: Sun Apr 2 2017Trip spans 3 days.
$302.
Select.
United.
AUS.
9:47a.
→OKC.
1:22p.
3h 35m.
1 stop.
OKC.
6:55a.
→AUS.
10:58a.
4h 03m.
1 stop.
Show reviews.
Hide reviews.
7.0 Good (32,714 reviews)
United, traveler reviews.
Overall.
7.2.
Boarding.
7.3.
Comfort.
6.9.
Crew.
7.7.
Entertainment.
6.4.
Food.
6.4.
7.0.
Good.
32,714 reviews.
7.0 Good.
(ABQ → DEN)
Wifi.
Delayed boarding and agent confusion.
more.
less.
5.0 Okay.
(ABQ → DEN)
Absolutely no leg room. Much less than most major airlines.
more.
less.
Read all traveler reviews for United.
Depart: Thu Apr 6 2017Return: Sun Apr 9 2017Trip spans 4 days.
$302.
Select.
Major Airline.
AUS.
10:35p.
→OKC.
9:26a.
10h 51m.
1 stop.
OKC.
10:10a.
→AUS.
9:11p.
11h 01m.
1 stop.
Depart: Fri Apr 7 2017Return: Sun Apr 9 2017Trip spans 3 days.
$302.
Select.
United.
AUS.
9:55a.
→OKC.
1:29p.
3h 34m.
1 stop.
OKC.
5:10a.
→AUS.
10:09a.
4h 59m.
1 stop.
Show reviews.
Hide reviews.
7.0 Good (32,714 reviews)
United, traveler reviews.
Overall.
7.2.
Boarding.
7.3.
Comfort.
6.9.
Crew.
7.7.
Entertainment.
6.4.
Food.
6.4.
7.0.
Good.
32,714 reviews.
10.0 Excellent.
(ABQ → DEN)
My connecting flight was way late, but the plane was held for me and a few others in Denver. Because it was the last flight of the evening I don't know what I would have done if left at the airport indefinitely. I am grateful the plane was held. And regret any inconvenience this may have caused others.
more.
less.
5.6 Okay.
(ABQ → DEN)
Crew were fine.
Seats are narrower and make for a lot of discomfort when stuck in the middle seat. I do not like other stranger's bodies touching mine. That is just wrong.
more.
less.
Read all traveler reviews for United.
Depart: Fri May 5 2017Return: Sun May 7 2017Trip spans 3 days.
$302.
Select.
American Airlines.
AUS.
1:05a.
→OKC.
5:59a.
4h 54m.
1 stop.
OKC.
10:25a.
→AUS.
2:45p.
4h 20m.
1 stop.
Show reviews.
Hide reviews.
7.0 Good (14,494 reviews)
American Airlines, traveler reviews.
Overall.
7.2.
Boarding.
7.3.
Comfort.
7.0.
Crew.
7.7.
Entertainment.
6.4.
Food.
6.4.
7.0.
Good.
14,494 reviews.
7.6 Good.
(ABI → DFW)
Very nice gate crewVery efficient boardingVery quick and efficient takeoff.
No electronic check of boarding passesFlight attendant somewhat responsive.
more.
less.
10.0 Excellent.
(ABI → DFW)
Smooth.
more.
less.
Read all traveler reviews for American Airlines.
Depart: Thu Apr 20 2017Return: Sun Apr 23 2017Trip spans 4 days.
$302.
Select.
United.
AUS.
11:20a.
→OKC.
5:20p.
6h 00m.
1 stop.
OKC.
3:55a.
→AUS.
7:50a.
3h 55m.
1 stop.
Depart: Thu May 11 2017Return: Sun May 14 2017Trip spans 4 days.
$302.
Select.
Major Airline.
AUS.
10:35p.
→OKC.
10:49a.
12h 14m.
1 stop.
OKC.
11:35a.
→AUS.
9:17p.
9h 42m.
1 stop.
Depart: Tue May 16 2017Return: Wed May 17 2017Trip spans 2 days.
$302.
Select.
American Airlines.
AUS.
3:00a.
→OKC.
5:59a.
2h 59m.
1 stop.
OKC.
1:10a.
→AUS.
5:53a.
4h 43m.
1 stop.
Depart: Fri Apr 21 2017Return: Sun Apr 23 2017Trip spans 3 days.
$302.
Select.
United.
AUS.
3:36p.
→OKC.
6:49p.
3h 13m.
1 stop.
OKC.
2:30p.
→AUS.
6:35p.
4h 05m.
1 stop.
Depart: Wed May 17 2017Return: Sat May 20 2017Trip spans 4 days.
$302.
Select.
American Airlines.
AUS.
2:15a.
→OKC.
5:59a.
3h 44m.
1 stop.
OKC.
12:03p.
→AUS.
4:14p.
4h 11m.
1 stop.
Depart: Mon Mar 20 2017Return: Tue Mar 21 2017Trip spans 2 days.
$321.
Select.
Major Airline.
AUS.
1:00a.
→OKC.
1:43a.
0h 43m.
1 stop.
OKC.
1:00a.
→AUS.
1:43a.
0h 43m.
1 stop.
Depart: Sun May 14 2017Return: Wed May 17 2017Trip spans 4 days.
$302.
Select.
United.
AUS.
2:30a.
→OKC.
6:17a.
3h 47m.
1 stop.
OKC.
8:20a.
→AUS.
11:40a.
3h 20m.
1 stop.
Depart: Fri May 19 2017Return: Sat May 20 2017Trip spans 2 days.
$302.
Select.
American Airlines.
AUS.
3:45p.
→OKC.
7:05p.
3h 20m.
1 stop.
OKC.
12:03p.
→AUS.
4:14p.
4h 11m.
1 stop.
